Final Team Project
================
Abizer, Matthew, Ping, Rosy
12/15/2022

    # A tibble: 195,330 × 10
       fare_amount passenger_count pickup_time pickup_year pickup_month pickup_date
             <dbl>           <dbl> <chr>       <chr>       <chr>        <chr>      
     1         7.5               1 19:52       2015        05           05         
     2         7.7               1 20:04       2009        07           07         
     3        12.9               1 21:45       2009        08           08         
     4         5.3               3 08:22       2009        06           06         
     5        16                 5 17:47       2014        08           08         
     6         4.9               1 02:27       2011        02           02         
     7        24.5               5 07:04       2014        10           10         
     8         9.7               1 09:32       2012        02           02         
     9        12.5               1 19:06       2012        03           03         
    10         6.5               1 17:32       2015        05           05         
    # … with 195,320 more rows, and 4 more variables: pickup_latitude_mod <dbl>,
    #   pickup_longitude_mod <dbl>, dropoff_latitude_mod <dbl>,
    #   dropoff_longitude_mod <dbl>
…
