…
     Min.   :-77.32       Min.   :40.33       Min.   :-75.42       
     1st Qu.:-73.99       1st Qu.:40.74       1st Qu.:-73.99       
     Median :-73.98       Median :40.75       Median :-73.98       
     Mean   :-73.98       Mean   :40.75       Mean   :-73.97       
     3rd Qu.:-73.97       3rd Qu.:40.77       3rd Qu.:-73.97       
     Max.   :-71.90       Max.   :42.48       Max.   :-71.72       
     dropoff_latitude_mod
     Min.   :40.33       
     1st Qu.:40.74       
     Median :40.75       
     Mean   :40.75       
     3rd Qu.:40.77       
     Max.   :42.46       

    # A tibble: 13,528 × 10
       fare_amount passeng…¹ picku…² picku…³ picku…⁴ picku…⁵ picku…⁶ picku…⁷ dropo…⁸
             <dbl>     <dbl> <chr>   <chr>   <chr>   <chr>     <dbl>   <dbl>   <dbl>
     1         7.5         1 19:52   2015    05      05         40.7   -74.0    40.7
     2         6.5         1 17:32   2015    05      05         40.7   -74.0    40.7
     3        12           1 08:58   2015    03      03         40.8   -74.0    40.8
     4         5           2 23:15   2015    03      03         40.7   -74.0    40.7
     5        12           1 09:17   2015    01      01         40.7   -74.0    40.8
     6         9           1 17:52   2015    06      06         40.7   -74.0    40.7
     7         8.5         2 11:19   2015    02      02         40.7   -74.0    40.8
     8        21           1 14:56   2015    05      05         40.8   -74.0    40.8
     9        11           1 13:31   2015    05      05         40.8   -74.0    40.8
    10         3.5         2 01:35   2015    05      05         40.8   -74.0    40.7
    # … with 13,518 more rows, 1 more variable: dropoff_longitude_mod <dbl>, and
    #   abbreviated variable names ¹​passenger_count, ²​pickup_time, ³​pickup_year,
    #   ⁴​pickup_month, ⁵​pickup_date, ⁶​pickup_latitude_mod, ⁷​pickup_longitude_mod,
    #   ⁸​dropoff_latitude_mod
…
